Take-home_Ex03
…
Click to view code

# Calculate proportions by region
region_proportions <- survey_data %>%
  group_by(reg_name) %>%
  summarise(across(all_of(binary_vars), ~ mean(as.numeric(.), na.rm = TRUE), .names = "prop_{col}"))

print(region_proportions)

# A tibble: 31 × 7
   reg_name     prop_BANKED prop_MFI prop_INSURANCE prop_SACCO prop_OTHER_FORMAL
   <chr>              <dbl>    <dbl>          <dbl>      <dbl>             <dbl>
 1 Arusha             0.298   0.105          0.137     0.00317             0.784
 2 Dar es Sala…       0.437   0.159          0.215     0.0142              0.943
 3 Dodoma             0.198   0.0951         0.180     0.0121              0.773
 4 Geita              0.152   0.0365         0.0590    0.00281             0.753
 5 Iringa             0.222   0.0711         0.138     0.00444             0.724
 6 Kagera             0.132   0.0140         0.0588    0.0168              0.650
 7 Kaskazini P…       0.175   0.0361         0.0567    0.00515             0.686
 8 Kaskazini U…       0.167   0.0444         0.0278    0.0278              0.806
 9 Katavi             0.211   0.0404         0.103     0.00448             0.776
10 Kigoma             0.118   0.0112         0.0848    0.00670             0.569
# ℹ 21 more rows
# ℹ 1 more variable: prop_OVERALL_FORMAL <dbl>
…
