Take-home_Ex01
…
Click to view code

# Join accidents to the nearest road segment
acc_with_roads <- st_join(car_acc, Road_bmr, join = st_nearest_feature)

# Check the joined data
print(acc_with_roads)

Simple feature collection with 12986 features and 24 fields
Geometry type: POINT
Dimension:     XY
Bounding box:  xmin: 591277.5 ymin: 1486846 xmax: 710166.1 ymax: 1576520
Projected CRS: WGS 84 / UTM zone 47N
# A tibble: 12,986 × 25
   acc_code province_en   Month_num Month_fac   Day Day_of_week clock   
 *    <dbl> <chr>             <dbl> <ord>     <int> <ord>       <chr>   
 1   571882 Nakhon Pathom         1 Jan           1 Tue         02:25:00
 2   600001 Nonthaburi            1 Jan           1 Tue         03:00:00
 3   605043 Samut Prakan          1 Jan           1 Tue         03:00:00
 4   629691 Bangkok               1 Jan           1 Tue         03:05:00
 5   571887 Nakhon Pathom         1 Jan           1 Tue         04:30:00
 6   599234 Samut Prakan          1 Jan           1 Tue         04:45:00
 7   599990 Samut Sakhon          1 Jan           1 Tue         05:30:00
 8   612045 Nonthaburi            1 Jan           1 Tue         05:30:00
 9   629689 Bangkok               1 Jan           1 Tue         05:42:00
10   607046 Pathum Thani          1 Jan           1 Tue         06:30:00
# ℹ 12,976 more rows
# ℹ 18 more variables: geometry <POINT [m]>, name <chr>, name_en <chr>,
#   highway <chr>, surface <chr>, smoothness <chr>, width <chr>, lanes <chr>,
#   oneway <chr>, bridge <chr>, layer <chr>, source <chr>, name_th <chr>,
#   osm_id <dbl>, osm_type <chr>, Shape_Leng <dbl>, Shape_Area <dbl>,
#   ADM1_EN <chr>
…
# Check the result
print(car_acc_time %>% select(number_of_fatalities, number_of_injuries, number_of_vehicles_involved, accident_severity))

Simple feature collection with 12986 features and 4 fields
Geometry type: POINT
Dimension:     XY
Bounding box:  xmin: 591277.5 ymin: 1486846 xmax: 710166.1 ymax: 1576520
Projected CRS: WGS 84 / UTM zone 47N
# A tibble: 12,986 × 5
   number_of_fatalities number_of_injuries number_of_vehicles_involved
                  <dbl>              <dbl>                       <dbl>
 1                    0                  2                           1
 2                    0                  1                           1
 3                    0                  0                           2
 4                    0                  1                           1
 5                    0                  1                           1
 6                    1                  0                           1
 7                    1                  0                           1
 8                    0                  0                           1
 9                    0                  0                           1
10                    0                  1                           1
# ℹ 12,976 more rows
# ℹ 2 more variables: accident_severity <chr>, geometry <POINT [m]>
…
